-------------------------------------------------------------------------------
Test set: com.clusus.springboot.controller.DealControllerTest
-------------------------------------------------------------------------------
Tests run: 2, Failures: 0, Errors: 0, Skipped: 0, Time elapsed: 0.105 s - in com.clusus.springboot.controller.DealControllerTest
